0 0.43115234375 0.44091796875 0.0087890625 0.0419921875
0 0.439208984375 0.44140625 0.00830078125 0.04296875
0 0.449462890625 0.44189453125 0.00830078125 0.0419921875
0 0.455810546875 0.4384765625 0.00927734375 0.044921875

