0 0.45361328125 0.4267578125 0.0166015625 0.08203125
0 0.44677734375 0.4267578125 0.0146484375 0.0703125
0 0.7099609375 0.4443359375 0.03515625 0.169921875
0 0.729248046875 0.4736328125 0.02294921875 0.11328125
0 0.77001953125 0.4501953125 0.0322265625 0.15625
0 0.926025390625 0.47314453125 0.03759765625 0.1826171875
0 0.943359375 0.47802734375 0.0390625 0.1904296875

