0 0.376708984375 0.4365234375 0.00927734375 0.044921875
0 0.1865234375 0.44482421875 0.0361328125 0.1748046875
0 0.12109375 0.45703125 0.04296875 0.208984375
0 0.109619140625 0.482421875 0.03955078125 0.193359375
0 0.36181640625 0.435546875 0.005859375 0.03125
0 0.366943359375 0.42919921875 0.00537109375 0.0224609375
0 0.370361328125 0.44287109375 0.00732421875 0.0361328125
0 0.34375 0.42578125 0.005859375 0.025390625
0 0.327392578125 0.443359375 0.00927734375 0.05078125
0 0.44970703125 0.42724609375 0.0146484375 0.0712890625

