0 0.44189453125 0.42333984375 0.0078125 0.0380859375
0 0.4267578125 0.421875 0.0078125 0.0390625
0 0.456298828125 0.42529296875 0.01220703125 0.0595703125
0 0.42236328125 0.4384765625 0.015625 0.037109375
0 0.677734375 0.42626953125 0.013671875 0.0654296875
0 0.663818359375 0.427734375 0.01318359375 0.064453125
0 0.214599609375 0.41796875 0.03955078125 0.193359375
0 0.261962890625 0.43310546875 0.03759765625 0.1826171875

