0 0.481689453125 0.42578125 0.00634765625 0.03125
0 0.61376953125 0.412109375 0.00390625 0.017578125
0 0.471923828125 0.4345703125 0.00927734375 0.044921875
0 0.341064453125 0.44873046875 0.01416015625 0.0693359375
0 0.21533203125 0.46044921875 0.029296875 0.1416015625
0 0.238037109375 0.47119140625 0.02685546875 0.1318359375

