0 0.668701171875 0.4375 0.03466796875 0.169921875
0 0.073486328125 0.43994140625 0.00634765625 0.0302734375
0 0.08154296875 0.43896484375 0.005859375 0.0283203125
0 0.094970703125 0.4384765625 0.00537109375 0.02734375
0 0.165283203125 0.43212890625 0.00732421875 0.0341796875
0 0.2197265625 0.43896484375 0.01171875 0.0576171875
0 0.22802734375 0.43994140625 0.01171875 0.0576171875
0 0.533203125 0.439453125 0.0224609375 0.109375
0 0.515869140625 0.43798828125 0.02294921875 0.1123046875
0 0.646240234375 0.44482421875 0.03369140625 0.1650390625
0 0.3662109375 0.44677734375 0.01953125 0.0966796875
0 0.869140625 0.4384765625 0.0458984375 0.224609375
0 0.900390625 0.44091796875 0.0390625 0.1904296875
0 0.912841796875 0.4453125 0.04541015625 0.220703125
0 0.93701171875 0.48193359375 0.0302734375 0.1474609375
0 0.284423828125 0.44482421875 0.01513671875 0.0732421875
0 0.013671875 0.447265625 0.009765625 0.033203125

