0 0.213134765625 0.47119140625 0.03173828125 0.1552734375
0 0.140625 0.47265625 0.03125 0.15234375
0 0.161865234375 0.48046875 0.02783203125 0.13671875
0 0.47119140625 0.48681640625 0.021484375 0.1044921875
0 0.45556640625 0.48388671875 0.0224609375 0.1103515625

