0 0.637939453125 0.41748046875 0.01123046875 0.0537109375
0 0.646484375 0.41650390625 0.0107421875 0.0517578125
0 0.925537109375 0.39697265625 0.02294921875 0.1123046875
0 0.958740234375 0.38671875 0.02685546875 0.130859375
0 0.977783203125 0.390625 0.02685546875 0.12890625
0 0.359619140625 0.43603515625 0.01025390625 0.0380859375

