0 0.58984375 0.42822265625 0.0107421875 0.0537109375
0 0.868896484375 0.41455078125 0.01416015625 0.0673828125
0 0.837158203125 0.42138671875 0.01708984375 0.0830078125
0 0.82177734375 0.42431640625 0.0166015625 0.0791015625
0 0.829833984375 0.43505859375 0.02197265625 0.1083984375
0 0.800048828125 0.43212890625 0.02294921875 0.1123046875
0 0.65234375 0.41455078125 0.0087890625 0.0419921875
0 0.45556640625 0.43603515625 0.0126953125 0.0634765625
0 0.300537109375 0.4443359375 0.01611328125 0.078125
0 0.635009765625 0.4208984375 0.01025390625 0.048828125
0 0.284912109375 0.44091796875 0.02099609375 0.1044921875
0 0.24755859375 0.44775390625 0.021484375 0.1064453125
0 0.210205078125 0.4501953125 0.02099609375 0.1015625
0 0.9794921875 0.4013671875 0.005859375 0.029296875
0 0.095703125 0.4443359375 0.0283203125 0.138671875
0 0.52734375 0.4892578125 0.03515625 0.169921875
0 0.3916015625 0.43798828125 0.0146484375 0.0712890625
0 0.50390625 0.48388671875 0.0341796875 0.1689453125
0 0.9130859375 0.40625 0.0107421875 0.0546875
0 0.098876953125 0.45361328125 0.03466796875 0.1689453125
0 0.990478515625 0.40087890625 0.00732421875 0.0283203125

