0 0.392822265625 0.41455078125 0.00732421875 0.0361328125
0 0.41015625 0.4140625 0.0068359375 0.033203125
0 0.41552734375 0.416015625 0.0068359375 0.033203125
0 0.53857421875 0.4169921875 0.0078125 0.0390625
0 0.77490234375 0.4306640625 0.0205078125 0.1015625
0 0.79736328125 0.4443359375 0.0205078125 0.1015625
0 0.811279296875 0.43798828125 0.02685546875 0.1298828125
0 0.404541015625 0.41455078125 0.00732421875 0.0341796875

