0 0.323486328125 0.453125 0.00439453125 0.021484375
0 0.560546875 0.4375 0.01171875 0.056640625
0 0.284912109375 0.4560546875 0.00439453125 0.01953125
0 0.547119140625 0.43505859375 0.01220703125 0.0595703125
0 0.17333984375 0.46044921875 0.01171875 0.0576171875
0 0.166259765625 0.4609375 0.01123046875 0.0546875
0 0.156005859375 0.45849609375 0.01220703125 0.0595703125
0 0.14404296875 0.4609375 0.0146484375 0.0703125
0 0.6015625 0.439453125 0.0126953125 0.0625
0 0.106689453125 0.462890625 0.01416015625 0.0703125
0 0.59326171875 0.43701171875 0.0146484375 0.0712890625
0 0.572265625 0.44189453125 0.0107421875 0.0537109375
0 0.578125 0.44287109375 0.0126953125 0.0615234375
0 0.011474609375 0.46435546875 0.02001953125 0.0966796875
0 0.5263671875 0.4443359375 0.0126953125 0.0625
0 0.503662109375 0.44384765625 0.01416015625 0.0673828125
0 0.51611328125 0.443359375 0.0126953125 0.0625
0 0.538818359375 0.44189453125 0.01416015625 0.0693359375
0 0.61962890625 0.4345703125 0.0146484375 0.072265625
0 0.805908203125 0.4296875 0.02587890625 0.091796875
0 0.587158203125 0.43896484375 0.01318359375 0.0654296875
0 0.55615234375 0.447265625 0.01171875 0.05859375
0 0.53564453125 0.45263671875 0.0107421875 0.0517578125
0 0.820556640625 0.4267578125 0.02880859375 0.09765625
0 0.549072265625 0.44384765625 0.01220703125 0.0615234375

