0 0.360595703125 0.43408203125 0.00927734375 0.0439453125
0 0.3662109375 0.43408203125 0.0078125 0.0380859375
0 0.591552734375 0.42626953125 0.01123046875 0.0537109375
0 0.575439453125 0.42578125 0.00927734375 0.044921875
0 0.72705078125 0.4501953125 0.03125 0.15234375
0 0.7373046875 0.46484375 0.02734375 0.134765625

