0 0.261474609375 0.4423828125 0.01318359375 0.0625
0 0.253173828125 0.443359375 0.01123046875 0.056640625
0 0.243896484375 0.44482421875 0.01123046875 0.0556640625
0 0.531494140625 0.4365234375 0.01318359375 0.064453125
0 0.554931640625 0.4306640625 0.01513671875 0.07421875
0 0.746826171875 0.4267578125 0.02001953125 0.09765625
0 0.7236328125 0.42919921875 0.01953125 0.0947265625
0 0.988037109375 0.41748046875 0.02587890625 0.1259765625
0 0.126708984375 0.46142578125 0.01416015625 0.0693359375
0 0.06005859375 0.4462890625 0.00390625 0.017578125
0 0.049072265625 0.45068359375 0.00537109375 0.0283203125
0 0.234619140625 0.453125 0.01708984375 0.083984375
0 0.315185546875 0.447265625 0.01611328125 0.080078125
0 0.366943359375 0.435546875 0.00732421875 0.03515625
0 0.0732421875 0.4619140625 0.0126953125 0.060546875

