0 0.597412109375 0.453125 0.01806640625 0.087890625
0 0.02392578125 0.365234375 0.0087890625 0.04296875
0 0.08740234375 0.44677734375 0.01953125 0.0966796875
0 0.052001953125 0.44580078125 0.02001953125 0.0966796875

