0 0.46533203125 0.408203125 0.0185546875 0.091796875
0 0.50439453125 0.4169921875 0.0185546875 0.08984375
0 0.47412109375 0.416015625 0.029296875 0.14453125
0 0.44775390625 0.40576171875 0.0322265625 0.1572265625
0 0.389404296875 0.4248046875 0.04052734375 0.19921875
0 0.572021484375 0.41015625 0.02587890625 0.125
0 0.54541015625 0.41748046875 0.02734375 0.1337890625

