0 0.835693359375 0.43017578125 0.03662109375 0.1787109375
0 0.863037109375 0.4423828125 0.03173828125 0.154296875
0 0.872314453125 0.427734375 0.03857421875 0.1875
0 0.80224609375 0.4296875 0.0400390625 0.197265625
0 0.82421875 0.42041015625 0.044921875 0.2197265625
0 0.7666015625 0.4169921875 0.009765625 0.046875

