0 0.806640625 0.42236328125 0.0107421875 0.0263671875
0 0.871337890625 0.4287109375 0.01513671875 0.064453125
0 0.90625 0.42529296875 0.0224609375 0.0400390625
0 0.491943359375 0.44580078125 0.01318359375 0.0654296875
0 0.37060546875 0.44921875 0.0048828125 0.0234375
0 0.467041015625 0.4482421875 0.02099609375 0.1015625
0 0.47412109375 0.44677734375 0.0224609375 0.1103515625
0 0.343994140625 0.50048828125 0.11376953125 0.5556640625
0 0.502197265625 0.4482421875 0.01220703125 0.060546875
0 0.308837890625 0.537109375 0.11669921875 0.5703125
0 0.860595703125 0.4306640625 0.01806640625 0.0625
0 0.892822265625 0.42578125 0.01318359375 0.052734375
0 0.88134765625 0.42431640625 0.0166015625 0.0478515625
0 0.3984375 0.4189453125 0.044921875 0.21875
0 0.2314453125 0.419921875 0.0390625 0.19140625
0 0.260009765625 0.45068359375 0.01123046875 0.0322265625
0 0.41796875 0.439453125 0.0068359375 0.0234375

