0 0.619140625 0.43896484375 0.013671875 0.0673828125
0 0.59375 0.4462890625 0.0068359375 0.033203125
0 0.54052734375 0.44775390625 0.0068359375 0.0263671875
0 0.49462890625 0.439453125 0.0107421875 0.05078125
0 0.48681640625 0.44384765625 0.0126953125 0.0615234375
0 0.4814453125 0.44091796875 0.0146484375 0.0712890625
0 0.506591796875 0.44091796875 0.01513671875 0.0732421875
0 0.521484375 0.486328125 0.044921875 0.21875
0 0.422607421875 0.4873046875 0.04150390625 0.205078125
0 0.5869140625 0.44384765625 0.0078125 0.0400390625
0 0.600341796875 0.44091796875 0.01220703125 0.0595703125

