0 0.2197265625 0.4443359375 0.0185546875 0.08984375
0 0.249755859375 0.4443359375 0.01904296875 0.091796875
0 0.1181640625 0.42529296875 0.0126953125 0.0224609375
0 0.599365234375 0.45068359375 0.01806640625 0.0439453125
0 0.54931640625 0.43603515625 0.0068359375 0.0341796875
0 0.541748046875 0.4375 0.00732421875 0.037109375
0 0.534423828125 0.43798828125 0.01220703125 0.0361328125
0 0.545166015625 0.44140625 0.00048828125 0.001953125

