0 0.53857421875 0.41455078125 0.0087890625 0.0439453125
0 0.5712890625 0.4150390625 0.0087890625 0.044921875
0 0.560791015625 0.41650390625 0.00927734375 0.0458984375
0 0.87353515625 0.4560546875 0.03125 0.15234375
0 0.55126953125 0.41552734375 0.0068359375 0.0341796875
0 0.511474609375 0.435546875 0.03369140625 0.1640625
0 0.70849609375 0.46337890625 0.05078125 0.2470703125
0 0.59912109375 0.400390625 0.015625 0.0234375

