0 0.864501953125 0.38720703125 0.01513671875 0.0751953125
0 0.8720703125 0.390625 0.015625 0.076171875
0 0.88037109375 0.39404296875 0.0146484375 0.0732421875
0 0.339599609375 0.42431640625 0.02294921875 0.1103515625

