0 0.64404296875 0.41748046875 0.005859375 0.0283203125
0 0.651123046875 0.4189453125 0.00634765625 0.03125
0 0.65771484375 0.41748046875 0.005859375 0.0283203125
0 0.666259765625 0.4189453125 0.00927734375 0.046875
0 0.677978515625 0.4189453125 0.01123046875 0.0546875
0 0.684814453125 0.41796875 0.01123046875 0.0546875

