0 0.742919921875 0.4169921875 0.01220703125 0.056640625
0 0.781494140625 0.42236328125 0.01123046875 0.0537109375
0 0.764404296875 0.419921875 0.01318359375 0.064453125
0 0.62255859375 0.42041015625 0.0087890625 0.0419921875
0 0.653076171875 0.42822265625 0.01220703125 0.0576171875
0 0.66943359375 0.42578125 0.0126953125 0.060546875
0 0.30419921875 0.4375 0.005859375 0.02734375

