0 0.074462890625 0.41162109375 0.01806640625 0.0869140625
0 0.092041015625 0.41552734375 0.01708984375 0.0830078125
0 0.168701171875 0.41455078125 0.01416015625 0.0693359375
0 0.148681640625 0.4150390625 0.01318359375 0.0625
0 0.36328125 0.4296875 0.0087890625 0.04296875
0 0.027099609375 0.4169921875 0.04736328125 0.1171875
0 0.221923828125 0.4189453125 0.02587890625 0.072265625
0 0.32177734375 0.42919921875 0.0517578125 0.0712890625
0 0.377685546875 0.4306640625 0.01220703125 0.04296875
0 0.40478515625 0.43505859375 0.0390625 0.0380859375
0 0.431396484375 0.43505859375 0.01318359375 0.0380859375

