0 0.453125 0.42236328125 0.00390625 0.0185546875
0 0.64794921875 0.4365234375 0.0126953125 0.060546875
0 0.30322265625 0.421875 0.0078125 0.046875
0 0.314208984375 0.408203125 0.00341796875 0.01171875

