0 0.83251953125 0.4384765625 0.0126953125 0.0625
0 0.843994140625 0.44580078125 0.00634765625 0.0302734375
0 0.053466796875 0.494140625 0.02587890625 0.125
0 0.370361328125 0.4521484375 0.01123046875 0.0546875
0 0.159912109375 0.4853515625 0.02001953125 0.09765625
0 0.03857421875 0.49560546875 0.02734375 0.1337890625
0 0.227294921875 0.4775390625 0.01611328125 0.080078125

