0 0.517333984375 0.42724609375 0.01123046875 0.0556640625
0 0.683349609375 0.4267578125 0.01220703125 0.05859375
0 0.6728515625 0.4326171875 0.0087890625 0.04296875
0 0.661376953125 0.42431640625 0.01220703125 0.0595703125
0 0.81298828125 0.44140625 0.037109375 0.1796875
0 0.3388671875 0.42626953125 0.0126953125 0.0634765625

