0 0.500732421875 0.41259765625 0.00244140625 0.0009765625
0 0.50048828125 0.43212890625 0.0078125 0.0380859375
0 0.4892578125 0.421875 0.0068359375 0.033203125
0 0.490234375 0.42822265625 0.0087890625 0.0439453125
0 0.505615234375 0.431640625 0.00830078125 0.0390625

