0 0.526123046875 0.42041015625 0.00830078125 0.0380859375
0 0.310546875 0.4296875 0.0146484375 0.072265625
0 0.275146484375 0.4423828125 0.02392578125 0.1171875
0 0.208984375 0.46630859375 0.033203125 0.1240234375

