0 0.478759765625 0.42578125 0.00537109375 0.025390625
0 0.314208984375 0.4248046875 0.01416015625 0.068359375
0 0.531005859375 0.42578125 0.00634765625 0.03125
0 0.541748046875 0.42626953125 0.00537109375 0.0263671875
0 0.487548828125 0.423828125 0.00341796875 0.017578125

