0 0.433837890625 0.4111328125 0.00439453125 0.021484375
0 0.429443359375 0.4072265625 0.00634765625 0.029296875
0 0.421875 0.40673828125 0.005859375 0.0283203125
0 0.295166015625 0.4228515625 0.01806640625 0.087890625
0 0.531005859375 0.419921875 0.01025390625 0.048828125
0 0.610107421875 0.4169921875 0.01025390625 0.048828125
0 0.583251953125 0.4287109375 0.01513671875 0.048828125
0 0.55419921875 0.4208984375 0.01171875 0.05859375
0 0.552978515625 0.42138671875 0.01123046875 0.0556640625
0 0.603759765625 0.41064453125 0.00732421875 0.0361328125

