0 0.749267578125 0.4462890625 0.01123046875 0.0546875
0 0.53173828125 0.4345703125 0.0087890625 0.04296875
0 0.53955078125 0.4326171875 0.0087890625 0.04296875
0 0.670654296875 0.44970703125 0.02392578125 0.1162109375

