0 0.51513671875 0.43017578125 0.015625 0.0751953125
0 0.528076171875 0.419921875 0.01611328125 0.078125
0 0.524658203125 0.43017578125 0.01416015625 0.0693359375
0 0.650146484375 0.435546875 0.00927734375 0.0625
0 0.705078125 0.54931640625 0.001953125 0.0107421875
0 0.898681640625 0.43994140625 0.04052734375 0.1982421875
0 0.94677734375 0.4345703125 0.0361328125 0.17578125
0 0.9990234375 0.4404296875 0.048828125 0.23828125
0 0.145263671875 0.42529296875 0.01220703125 0.0615234375
0 0.1123046875 0.4248046875 0.0146484375 0.072265625
0 0.04931640625 0.4267578125 0.0166015625 0.08203125
0 0.0625 0.42431640625 0.0166015625 0.0810546875

