0 0.17529296875 0.388671875 0.0048828125 0.025390625
0 0.170654296875 0.38916015625 0.00537109375 0.0283203125
0 0.56689453125 0.4306640625 0.015625 0.076171875
0 0.573486328125 0.43310546875 0.01416015625 0.0693359375
0 0.570556640625 0.43115234375 0.01611328125 0.0771484375
0 0.03564453125 0.384765625 0.0068359375 0.03515625

