0 0.938720703125 0.43359375 0.01708984375 0.083984375
0 0.911376953125 0.43359375 0.01416015625 0.068359375
0 0.477294921875 0.40966796875 0.01123046875 0.0556640625
0 0.222412109375 0.42041015625 0.05419921875 0.2646484375
0 0.318603515625 0.427734375 0.00927734375 0.046875
0 0.578857421875 0.46240234375 0.05517578125 0.2685546875
0 0.324951171875 0.41064453125 0.01123046875 0.0537109375

