0 0.84619140625 0.4541015625 0.01953125 0.0859375
0 0.86181640625 0.4248046875 0.015625 0.025390625
0 0.35791015625 0.44775390625 0.013671875 0.0654296875
0 0.73193359375 0.4296875 0.017578125 0.0859375

