0 0.446044921875 0.4345703125 0.01513671875 0.07421875
0 0.519287109375 0.423828125 0.00634765625 0.029296875
0 0.510009765625 0.4248046875 0.00634765625 0.03125
0 0.287353515625 0.42626953125 0.01806640625 0.0888671875
0 0.48828125 0.43994140625 0.029296875 0.1435546875
0 0.49609375 0.45068359375 0.025390625 0.1240234375
0 0.1640625 0.4130859375 0.013671875 0.03515625
0 0.156982421875 0.41748046875 0.02197265625 0.0341796875
0 0.140869140625 0.451171875 0.03271484375 0.099609375
0 0.080810546875 0.50732421875 0.10107421875 0.4931640625
0 0.04931640625 0.515625 0.11328125 0.552734375
0 0.95703125 0.47412109375 0.068359375 0.3349609375
0 0.189208984375 0.4267578125 0.01611328125 0.04296875
0 0.573974609375 0.45556640625 0.04638671875 0.2255859375
0 0.419921875 0.427734375 0.015625 0.076171875
0 0.26123046875 0.4287109375 0.0205078125 0.09765625
0 0.61376953125 0.4326171875 0.0146484375 0.0703125
0 0.970703125 0.474609375 0.076171875 0.37109375

