0 0.38818359375 0.4287109375 0.005859375 0.029296875
0 0.528564453125 0.43310546875 0.00927734375 0.0439453125
0 0.53662109375 0.43408203125 0.0078125 0.0380859375
0 0.546875 0.43310546875 0.0107421875 0.0498046875
0 0.52294921875 0.4345703125 0.009765625 0.046875
0 0.25830078125 0.4375 0.0078125 0.033203125
0 0.2705078125 0.435546875 0.017578125 0.0859375
0 0.224853515625 0.43994140625 0.01611328125 0.0771484375
0 0.018798828125 0.45068359375 0.06982421875 0.3408203125
0 0.434326171875 0.43896484375 0.01025390625 0.0498046875

