0 0.607421875 0.43310546875 0.0107421875 0.0537109375
0 0.621337890625 0.4345703125 0.01123046875 0.056640625
0 0.300048828125 0.44287109375 0.01513671875 0.0732421875
0 0.931884765625 0.43798828125 0.01806640625 0.0908203125
0 0.035400390625 0.4560546875 0.03759765625 0.18359375
0 0.010498046875 0.45947265625 0.03662109375 0.1767578125
0 0.432861328125 0.43310546875 0.00732421875 0.0361328125
0 0.4384765625 0.435546875 0.0078125 0.0390625
0 0.387939453125 0.4375 0.01708984375 0.083984375
0 0.319580078125 0.44189453125 0.02783203125 0.1357421875

