0 0.776611328125 0.4287109375 0.02001953125 0.095703125
0 0.798828125 0.43017578125 0.0185546875 0.0927734375
0 0.791748046875 0.43115234375 0.02001953125 0.0966796875
0 0.1845703125 0.43798828125 0.015625 0.0751953125
0 0.1240234375 0.4375 0.017578125 0.0859375
0 0.112548828125 0.439453125 0.01708984375 0.083984375
0 0.15478515625 0.43310546875 0.0185546875 0.0908203125
0 0.75341796875 0.431640625 0.03515625 0.08984375
0 0.749267578125 0.453125 0.00048828125 0.001953125

