0 0.2783203125 0.455078125 0.015625 0.076171875
0 0.14990234375 0.46630859375 0.029296875 0.1435546875
0 0.7431640625 0.453125 0.0693359375 0.33984375
0 0.851806640625 0.45361328125 0.07177734375 0.3505859375
0 0.886474609375 0.47607421875 0.08056640625 0.3916015625

