0 0.0498046875 0.4521484375 0.02734375 0.1328125
0 0.087158203125 0.4521484375 0.02294921875 0.11328125
0 0.069580078125 0.4443359375 0.02783203125 0.134765625
0 0.020263671875 0.453125 0.03369140625 0.138671875

