0 0.71240234375 0.43603515625 0.01171875 0.0576171875
0 0.60400390625 0.43359375 0.0087890625 0.04296875
0 0.794189453125 0.447265625 0.03271484375 0.158203125
0 0.617431640625 0.4375 0.01611328125 0.0546875

