0 0.157470703125 0.43017578125 0.01513671875 0.0751953125
0 0.17138671875 0.4326171875 0.0146484375 0.072265625
0 0.208984375 0.43408203125 0.015625 0.0771484375
0 0.22607421875 0.4345703125 0.0146484375 0.072265625

