0 0.203857421875 0.45947265625 0.02099609375 0.1025390625
0 0.199462890625 0.4638671875 0.02099609375 0.1015625
0 0.871337890625 0.42138671875 0.01611328125 0.0791015625
0 0.888427734375 0.4140625 0.01806640625 0.087890625
0 0.910400390625 0.42333984375 0.01904296875 0.0927734375

