0 0.565673828125 0.4560546875 0.01513671875 0.072265625
0 0.576171875 0.4560546875 0.0146484375 0.072265625
0 0.583251953125 0.453125 0.01611328125 0.080078125
0 0.587890625 0.44970703125 0.03125 0.1533203125
0 0.630126953125 0.45263671875 0.02880859375 0.1416015625
0 0.874267578125 0.47216796875 0.03564453125 0.1728515625
0 0.929931640625 0.46875 0.03955078125 0.193359375
0 0.505126953125 0.443359375 0.01318359375 0.06640625
0 0.38818359375 0.4404296875 0.0205078125 0.099609375
0 0.5322265625 0.4404296875 0.0439453125 0.060546875

