0 0.578369140625 0.453125 0.01416015625 0.068359375
0 0.661376953125 0.44775390625 0.01708984375 0.0830078125
0 0.721435546875 0.45263671875 0.01611328125 0.0791015625
0 0.70947265625 0.44970703125 0.0185546875 0.0927734375
0 0.3984375 0.4443359375 0.0126953125 0.060546875
0 0.40673828125 0.447265625 0.0107421875 0.0546875
0 0.3837890625 0.447265625 0.01171875 0.05859375
0 0.1142578125 0.45263671875 0.021484375 0.1044921875

