0 0.3720703125 0.45068359375 0.01953125 0.0947265625
0 0.329345703125 0.45458984375 0.02001953125 0.0986328125
0 0.69580078125 0.41650390625 0.0224609375 0.1083984375
0 0.734375 0.40771484375 0.0224609375 0.0888671875

