0 0.570068359375 0.41943359375 0.00830078125 0.0400390625
0 0.575439453125 0.4169921875 0.00830078125 0.041015625
0 0.742431640625 0.435546875 0.03662109375 0.177734375
0 0.820556640625 0.42724609375 0.03564453125 0.1728515625
0 0.798583984375 0.4306640625 0.03564453125 0.173828125
0 0.99755859375 0.4423828125 0.080078125 0.390625
0 0.3779296875 0.45166015625 0.0390625 0.1923828125
0 0.371337890625 0.44921875 0.04248046875 0.20703125
0 0.258056640625 0.43603515625 0.02685546875 0.1298828125

