0 0.380615234375 0.38916015625 0.00634765625 0.0302734375
0 0.5283203125 0.41748046875 0.0087890625 0.0439453125
0 0.5859375 0.4287109375 0.01171875 0.0546875
0 0.51708984375 0.38818359375 0.005859375 0.0283203125
0 0.52099609375 0.39892578125 0.005859375 0.0263671875
0 0.5537109375 0.41357421875 0.0087890625 0.0439453125
0 0.31884765625 0.41748046875 0.005859375 0.0302734375

