0 0.610595703125 0.50537109375 0.01220703125 0.0615234375
0 0.53662109375 0.50439453125 0.005859375 0.0263671875
0 0.465087890625 0.5068359375 0.00341796875 0.017578125
0 0.370849609375 0.5087890625 0.00341796875 0.017578125

