0 0.748291015625 0.4443359375 0.01806640625 0.087890625
0 0.77490234375 0.43603515625 0.0263671875 0.1279296875
0 0.5927734375 0.4296875 0.0068359375 0.033203125
0 0.5830078125 0.4326171875 0.0087890625 0.037109375

