0 0.328369140625 0.443359375 0.01123046875 0.0546875
0 0.572998046875 0.43994140625 0.00732421875 0.0361328125
0 0.754638671875 0.4580078125 0.02099609375 0.103515625
0 0.76171875 0.45263671875 0.0234375 0.1162109375
0 0.81298828125 0.4443359375 0.025390625 0.123046875
0 0.83837890625 0.45361328125 0.0224609375 0.1103515625
0 0.931640625 0.45654296875 0.0576171875 0.2822265625

