0 0.65576171875 0.4462890625 0.0166015625 0.080078125
0 0.647216796875 0.4619140625 0.02880859375 0.140625
0 0.6484375 0.46533203125 0.0263671875 0.1279296875
0 0.006591796875 0.41650390625 0.00634765625 0.0126953125
0 0.017333984375 0.42236328125 0.01416015625 0.0205078125

