0 0.53662109375 0.4267578125 0.013671875 0.06640625
0 0.45751953125 0.43359375 0.0068359375 0.033203125
0 0.378662109375 0.44091796875 0.00439453125 0.0224609375
0 0.370361328125 0.43994140625 0.00537109375 0.0263671875
0 0.363037109375 0.4404296875 0.00537109375 0.025390625
0 0.35595703125 0.44091796875 0.005859375 0.0263671875

