0 0.308349609375 0.44921875 0.01513671875 0.07421875
0 0.47265625 0.44140625 0.009765625 0.048828125
0 0.7060546875 0.4482421875 0.0146484375 0.0703125
0 0.728515625 0.4482421875 0.017578125 0.0859375

