0 0.57568359375 0.43994140625 0.0087890625 0.0439453125
0 0.674072265625 0.44677734375 0.01220703125 0.0595703125
0 0.701416015625 0.4443359375 0.01611328125 0.078125
0 0.1484375 0.45751953125 0.025390625 0.1240234375

