0 0.58984375 0.44384765625 0.0166015625 0.0830078125
0 0.5986328125 0.443359375 0.0185546875 0.08984375
0 0.56396484375 0.43896484375 0.017578125 0.0849609375
0 0.568603515625 0.4365234375 0.02001953125 0.09765625
0 0.554443359375 0.439453125 0.01708984375 0.08203125
0 0.5302734375 0.4375 0.017578125 0.0859375
0 0.342041015625 0.43359375 0.00830078125 0.0390625
0 0.335205078125 0.4345703125 0.00732421875 0.03515625
0 0.457763671875 0.4384765625 0.01318359375 0.064453125
0 0.126953125 0.43408203125 0.0380859375 0.1845703125

