0 0.521240234375 0.41357421875 0.00830078125 0.0380859375
0 0.47119140625 0.408203125 0.0107421875 0.05078125
0 0.47216796875 0.412109375 0.009765625 0.046875
0 0.4814453125 0.412109375 0.009765625 0.046875

