0 0.13916015625 0.4345703125 0.017578125 0.0859375
0 0.1552734375 0.43994140625 0.015625 0.0751953125
0 0.21142578125 0.45068359375 0.0029296875 0.0693359375
0 0.230224609375 0.45751953125 0.02685546875 0.1142578125
0 0.3447265625 0.44970703125 0.0244140625 0.0966796875

