0 0.5673828125 0.3916015625 0.00390625 0.021484375
0 0.72314453125 0.43115234375 0.0234375 0.1142578125
0 0.644775390625 0.4248046875 0.01220703125 0.060546875
0 0.736083984375 0.43505859375 0.02490234375 0.1201171875
0 0.75341796875 0.42041015625 0.025390625 0.1240234375
0 0.746337890625 0.4267578125 0.02880859375 0.140625

