0 0.39453125 0.427734375 0.0068359375 0.033203125
0 0.47607421875 0.4482421875 0.017578125 0.083984375
0 0.423828125 0.447265625 0.0166015625 0.080078125
0 0.374267578125 0.4345703125 0.01904296875 0.091796875
0 0.365966796875 0.43798828125 0.01806640625 0.0888671875

