0 0.60107421875 0.4140625 0.0146484375 0.072265625
0 0.61572265625 0.41162109375 0.0146484375 0.0712890625
0 0.2607421875 0.4541015625 0.021484375 0.10546875
0 0.23583984375 0.4296875 0.0263671875 0.12890625
0 0.37451171875 0.42236328125 0.0244140625 0.1201171875

