0 0.990478515625 0.42041015625 0.00830078125 0.0400390625
0 0.36865234375 0.439453125 0.0087890625 0.041015625
0 0.307373046875 0.439453125 0.02587890625 0.125
0 0.758544921875 0.4404296875 0.02685546875 0.130859375
0 0.0830078125 0.44580078125 0.009765625 0.0478515625

