0 0.423095703125 0.4326171875 0.00537109375 0.025390625
0 0.413818359375 0.43603515625 0.00537109375 0.0263671875
0 0.3564453125 0.4423828125 0.0078125 0.0390625
0 0.351318359375 0.44384765625 0.00732421875 0.0361328125
0 0.195068359375 0.4619140625 0.00927734375 0.046875

