0 0.73291015625 0.42138671875 0.0126953125 0.0595703125
0 0.755126953125 0.41748046875 0.01220703125 0.0595703125
0 0.721923828125 0.4208984375 0.01513671875 0.07421875
0 0.7841796875 0.41796875 0.0078125 0.0390625
0 0.790771484375 0.41552734375 0.00830078125 0.0400390625
0 0.206298828125 0.4443359375 0.01708984375 0.083984375
0 0.222900390625 0.43798828125 0.01513671875 0.0732421875
0 0.46728515625 0.4453125 0.005859375 0.02734375
0 0.418701171875 0.4453125 0.00537109375 0.025390625
0 0.408447265625 0.44091796875 0.00732421875 0.0361328125
0 0.6884765625 0.42431640625 0.01171875 0.0556640625
0 0.6962890625 0.42529296875 0.01171875 0.0556640625
0 0.269287109375 0.4375 0.01220703125 0.060546875
0 0.282470703125 0.43798828125 0.01220703125 0.0576171875
0 0.462158203125 0.4443359375 0.00634765625 0.029296875
0 0.666748046875 0.42724609375 0.01123046875 0.0537109375
0 0.986572265625 0.41748046875 0.03857421875 0.1884765625
0 0.664306640625 0.4423828125 0.00341796875 0.0234375
0 0.663818359375 0.45556640625 0.00048828125 0.0009765625
0 0.67041015625 0.4248046875 0.009765625 0.060546875
0 0.666015625 0.4052734375 0.0009765625 0.001953125
0 0.7001953125 0.42578125 0.0078125 0.060546875
0 0.71044921875 0.42724609375 0.0078125 0.0654296875

