0 0.67236328125 0.43212890625 0.0048828125 0.0244140625
0 0.6787109375 0.431640625 0.0048828125 0.025390625
0 0.6865234375 0.4306640625 0.0078125 0.029296875
0 0.805908203125 0.4365234375 0.01904296875 0.09375
0 0.78515625 0.4423828125 0.017578125 0.083984375
0 0.765869140625 0.43505859375 0.02099609375 0.1025390625
0 0.759765625 0.439453125 0.0205078125 0.09765625

