0 0.3603515625 0.458984375 0.0048828125 0.0234375
0 0.354736328125 0.46044921875 0.00439453125 0.0224609375
0 0.346435546875 0.46142578125 0.00537109375 0.0263671875
0 0.3662109375 0.45947265625 0.0048828125 0.0224609375
0 0.942626953125 0.40771484375 0.02587890625 0.1259765625
0 0.96533203125 0.43310546875 0.0146484375 0.0712890625

