0 0.4443359375 0.38720703125 0.00390625 0.0185546875
0 0.411865234375 0.38818359375 0.00537109375 0.0263671875
0 0.733154296875 0.41455078125 0.05224609375 0.2548828125
0 0.590087890625 0.38671875 0.01025390625 0.05078125
0 0.60693359375 0.3876953125 0.0107421875 0.05078125
0 0.764892578125 0.43603515625 0.03759765625 0.1845703125
0 0.751953125 0.45849609375 0.009765625 0.0498046875

