0 0.023681640625 0.46630859375 0.00732421875 0.0341796875
0 0.42138671875 0.470703125 0.013671875 0.068359375
0 0.043701171875 0.462890625 0.00830078125 0.041015625
0 0.596435546875 0.4814453125 0.01611328125 0.078125
0 0.400146484375 0.4560546875 0.01318359375 0.064453125

