0 0.424560546875 0.45068359375 0.01806640625 0.0869140625
0 0.397705078125 0.44287109375 0.01513671875 0.0732421875
0 0.380126953125 0.43896484375 0.01611328125 0.0791015625
0 0.712646484375 0.46728515625 0.03369140625 0.1650390625
0 0.940185546875 0.48486328125 0.06396484375 0.3095703125
0 0.012939453125 0.498046875 0.08154296875 0.396484375
0 0.11279296875 0.51513671875 0.0810546875 0.3955078125
0 0.768310546875 0.498046875 0.02392578125 0.115234375

