0 0.266357421875 0.44384765625 0.01123046875 0.0537109375
0 0.28076171875 0.44091796875 0.0126953125 0.0634765625
0 0.296875 0.44140625 0.013671875 0.06640625
0 0.530029296875 0.47265625 0.03369140625 0.166015625
0 0.575927734375 0.46240234375 0.03564453125 0.1748046875
0 0.602294921875 0.47021484375 0.03955078125 0.1923828125

