0 0.39306640625 0.4287109375 0.0068359375 0.03515625
0 0.38818359375 0.4287109375 0.009765625 0.046875
0 0.3779296875 0.42919921875 0.0087890625 0.0419921875
0 0.203369140625 0.4384765625 0.03466796875 0.169921875
0 0.60986328125 0.41796875 0.0078125 0.0390625
0 0.683349609375 0.4384765625 0.03076171875 0.150390625
0 0.426513671875 0.4326171875 0.00927734375 0.046875
0 0.421875 0.43408203125 0.01171875 0.0556640625

