0 0.064697265625 0.47021484375 0.00537109375 0.0263671875
0 0.653076171875 0.42236328125 0.01025390625 0.0517578125
0 0.515869140625 0.4267578125 0.01220703125 0.05859375
0 0.612548828125 0.40625 0.01708984375 0.08203125
0 0.024658203125 0.466796875 0.01123046875 0.037109375
0 0.03662109375 0.45703125 0.0107421875 0.0546875
0 0.04296875 0.4541015625 0.01171875 0.056640625
0 0.095703125 0.45166015625 0.0107421875 0.0517578125
0 0.435302734375 0.44140625 0.00732421875 0.03515625
0 0.472412109375 0.4267578125 0.00732421875 0.033203125
0 0.477294921875 0.4296875 0.01025390625 0.05078125
0 0.488525390625 0.43212890625 0.01416015625 0.0693359375
0 0.506591796875 0.423828125 0.01416015625 0.068359375
0 0.502197265625 0.419921875 0.01904296875 0.091796875
0 0.499267578125 0.42431640625 0.01708984375 0.0849609375
0 0.528076171875 0.41845703125 0.01708984375 0.0849609375
0 0.55322265625 0.41162109375 0.015625 0.0771484375
0 0.548828125 0.42138671875 0.0185546875 0.0908203125
0 0.799072265625 0.3720703125 0.00830078125 0.02734375
0 0.780517578125 0.404296875 0.01220703125 0.064453125
0 0.67578125 0.4130859375 0.033203125 0.16015625
0 0.57958984375 0.40576171875 0.015625 0.0751953125
0 0.584228515625 0.40576171875 0.01416015625 0.0673828125
0 0.574951171875 0.4189453125 0.02197265625 0.107421875
0 0.603515625 0.4091796875 0.0224609375 0.111328125
0 0.59228515625 0.419921875 0.0205078125 0.099609375

