0 0.263671875 0.4130859375 0.0078125 0.0390625
0 0.271240234375 0.4150390625 0.00732421875 0.03515625
0 0.16455078125 0.4248046875 0.0146484375 0.072265625
0 0.19140625 0.4404296875 0.0185546875 0.091796875
0 0.214111328125 0.44384765625 0.02001953125 0.0986328125
0 0.239990234375 0.4375 0.02001953125 0.09765625
0 0.475341796875 0.43212890625 0.01708984375 0.0830078125
0 0.462158203125 0.39306640625 0.01708984375 0.0126953125
0 0.4501953125 0.4306640625 0.0185546875 0.08984375
0 0.6435546875 0.4130859375 0.0166015625 0.080078125

