0 0.181640625 0.4638671875 0.0263671875 0.126953125
0 0.165771484375 0.46484375 0.03076171875 0.1484375
0 0.134521484375 0.470703125 0.02880859375 0.140625
0 0.186279296875 0.462890625 0.03173828125 0.15625
0 0.22705078125 0.4599609375 0.0322265625 0.15625
0 0.028564453125 0.50439453125 0.07080078125 0.3447265625
0 0.60400390625 0.4580078125 0.021484375 0.10546875
0 0.581787109375 0.4501953125 0.02294921875 0.111328125

