0 0.495849609375 0.396484375 0.00634765625 0.03125
0 0.488525390625 0.39599609375 0.00732421875 0.0361328125
0 0.484130859375 0.3974609375 0.00732421875 0.03515625
0 0.47705078125 0.39599609375 0.0068359375 0.0322265625
0 0.5244140625 0.38916015625 0.0068359375 0.0341796875
0 0.477294921875 0.4189453125 0.00927734375 0.044921875
0 0.4697265625 0.42041015625 0.009765625 0.0498046875
0 0.457763671875 0.421875 0.01025390625 0.048828125
0 0.55859375 0.41943359375 0.0146484375 0.0712890625
0 0.55029296875 0.41943359375 0.0146484375 0.0732421875
0 0.504150390625 0.3818359375 0.00927734375 0.01953125

