0 0.522216796875 0.443359375 0.00537109375 0.025390625
0 0.489501953125 0.44091796875 0.00634765625 0.0302734375
0 0.482177734375 0.43798828125 0.00732421875 0.0361328125
0 0.478515625 0.44140625 0.0078125 0.037109375
0 0.466064453125 0.44189453125 0.00732421875 0.0361328125
0 0.389892578125 0.4677734375 0.02099609375 0.06640625
0 0.290771484375 0.44091796875 0.01708984375 0.0830078125
0 0.837646484375 0.44873046875 0.02490234375 0.1220703125
0 0.911376953125 0.455078125 0.02685546875 0.130859375
0 0.82421875 0.4697265625 0.05078125 0.248046875
0 0.892333984375 0.4755859375 0.04345703125 0.2109375
0 0.990966796875 0.47119140625 0.04150390625 0.2021484375
0 0.52880859375 0.44140625 0.00390625 0.021484375
0 0.54638671875 0.44140625 0.005859375 0.02734375
0 0.659423828125 0.46142578125 0.02587890625 0.1279296875
0 0.68359375 0.4833984375 0.0263671875 0.12890625
0 0.537841796875 0.4423828125 0.00830078125 0.0234375
0 0.672119140625 0.42431640625 0.00341796875 0.0087890625
0 0.674072265625 0.43017578125 0.00048828125 0.0009765625
0 0.676025390625 0.45263671875 0.00048828125 0.0009765625
0 0.676513671875 0.42822265625 0.00048828125 0.0009765625
0 0.6767578125 0.44921875 0.0009765625 0.00390625
0 0.705078125 0.4404296875 0.0234375 0.052734375
0 0.712890625 0.478515625 0.00390625 0.01171875
0 0.716064453125 0.47705078125 0.00146484375 0.0087890625
0 0.7265625 0.44140625 0.0068359375 0.05078125
0 0.7255859375 0.47998046875 0.00390625 0.0146484375

