0 0.378662109375 0.447265625 0.01025390625 0.048828125
0 0.36669921875 0.44921875 0.01171875 0.05859375
0 0.353515625 0.45849609375 0.0283203125 0.1376953125
0 0.302978515625 0.47021484375 0.03271484375 0.1611328125
0 0.274658203125 0.45947265625 0.03466796875 0.1689453125
0 0.427734375 0.44775390625 0.015625 0.0771484375
0 0.4482421875 0.4384765625 0.0185546875 0.091796875
0 0.464599609375 0.44482421875 0.01708984375 0.0810546875
0 0.6376953125 0.44287109375 0.0224609375 0.1103515625
0 0.65234375 0.46875 0.03515625 0.169921875
0 0.523681640625 0.43115234375 0.02392578125 0.0458984375
0 0.6767578125 0.46630859375 0.02734375 0.1044921875
0 0.702392578125 0.45361328125 0.01220703125 0.0615234375

