0 0.22021484375 0.4404296875 0.041015625 0.19921875
0 0.591064453125 0.4443359375 0.00830078125 0.041015625
0 0.5615234375 0.455078125 0.0068359375 0.033203125
0 0.6904296875 0.4501953125 0.009765625 0.046875
0 0.685791015625 0.4521484375 0.01123046875 0.056640625
0 0.680908203125 0.45068359375 0.01220703125 0.0615234375
0 0.7646484375 0.46044921875 0.0283203125 0.1396484375
0 0.74169921875 0.46044921875 0.0283203125 0.1396484375
0 0.279296875 0.443359375 0.021484375 0.103515625
0 0.261962890625 0.453125 0.02392578125 0.1171875
0 0.375732421875 0.4951171875 0.02978515625 0.146484375
0 0.35888671875 0.466796875 0.04296875 0.208984375
0 0.667236328125 0.466796875 0.01025390625 0.029296875

