0 0.26318359375 0.439453125 0.0185546875 0.091796875
0 0.2412109375 0.43701171875 0.01953125 0.0947265625
0 0.27734375 0.447265625 0.0234375 0.11328125
0 0.460693359375 0.4638671875 0.00439453125 0.021484375
0 0.4658203125 0.46435546875 0.00390625 0.0185546875
0 0.5185546875 0.447265625 0.01171875 0.05859375
0 0.44091796875 0.44873046875 0.009765625 0.0478515625
0 0.42822265625 0.44482421875 0.0107421875 0.0517578125
0 0.400146484375 0.44580078125 0.00927734375 0.0458984375
0 0.3935546875 0.44189453125 0.0107421875 0.0517578125
0 0.32275390625 0.43408203125 0.021484375 0.1025390625

