0 0.40087890625 0.4189453125 0.005859375 0.02734375
0 0.391845703125 0.4189453125 0.00634765625 0.029296875
0 0.4755859375 0.42041015625 0.00390625 0.0205078125
0 0.4794921875 0.41845703125 0.0048828125 0.0244140625
0 0.920166015625 0.38525390625 0.01416015625 0.0693359375
0 0.56689453125 0.4150390625 0.0205078125 0.099609375
0 0.79150390625 0.42333984375 0.0361328125 0.1142578125
0 0.749755859375 0.49072265625 0.03564453125 0.0673828125
0 0.31640625 0.41796875 0.01171875 0.056640625
0 0.322998046875 0.4150390625 0.01318359375 0.064453125
0 0.350830078125 0.4189453125 0.01416015625 0.068359375
0 0.330322265625 0.42236328125 0.01806640625 0.0888671875
0 0.290283203125 0.41943359375 0.01904296875 0.0927734375
0 0.30810546875 0.42529296875 0.0185546875 0.0908203125
0 0.2490234375 0.44921875 0.0205078125 0.0703125
0 0.287353515625 0.4296875 0.02392578125 0.1171875
0 0.21875 0.4599609375 0.0205078125 0.1015625
0 0.181640625 0.431640625 0.033203125 0.162109375
0 0.075439453125 0.4482421875 0.05029296875 0.24609375

