0 0.520751953125 0.43017578125 0.00732421875 0.0361328125
0 0.637939453125 0.43212890625 0.01708984375 0.0830078125
0 0.335693359375 0.4521484375 0.03076171875 0.150390625
0 0.268798828125 0.44482421875 0.03271484375 0.1591796875
0 0.623291015625 0.43896484375 0.02099609375 0.0732421875

