0 0.196533203125 0.439453125 0.01123046875 0.0546875
0 0.978759765625 0.3994140625 0.01513671875 0.07421875
0 0.999755859375 0.40185546875 0.01806640625 0.0869140625
0 0.89599609375 0.40673828125 0.0107421875 0.0556640625
0 0.906982421875 0.42041015625 0.02490234375 0.0947265625

