0 0.912109375 0.45068359375 0.0537109375 0.2626953125
0 0.264404296875 0.47509765625 0.01708984375 0.0830078125
0 0.381103515625 0.46484375 0.01025390625 0.05078125
0 0.39697265625 0.470703125 0.0078125 0.037109375

