0 0.693359375 0.4287109375 0.005859375 0.029296875
0 0.54150390625 0.43408203125 0.0068359375 0.0341796875
0 0.59423828125 0.4296875 0.0078125 0.0390625
0 0.312744140625 0.44140625 0.00634765625 0.0390625
0 0.710205078125 0.4248046875 0.00830078125 0.0390625
0 0.72119140625 0.42431640625 0.0068359375 0.0322265625
0 0.76171875 0.42236328125 0.015625 0.0771484375
0 0.75146484375 0.4267578125 0.0166015625 0.080078125
0 0.7861328125 0.431640625 0.005859375 0.029296875
0 0.9541015625 0.41259765625 0.0146484375 0.0712890625
0 0.940673828125 0.4111328125 0.02099609375 0.1015625
0 0.9287109375 0.4111328125 0.0224609375 0.107421875
0 0.171142578125 0.45458984375 0.02587890625 0.1259765625
0 0.6474609375 0.43603515625 0.021484375 0.1044921875
0 0.740234375 0.431640625 0.0205078125 0.099609375
0 0.60302734375 0.44384765625 0.00390625 0.0205078125
0 0.61083984375 0.43505859375 0.0068359375 0.0400390625

