0 0.455322265625 0.43994140625 0.01025390625 0.0498046875
0 0.442626953125 0.439453125 0.00927734375 0.046875
0 0.4482421875 0.44091796875 0.009765625 0.0498046875
0 0.30078125 0.47021484375 0.046875 0.2275390625
0 0.849365234375 0.482421875 0.04541015625 0.21875

