0 0.736572265625 0.43408203125 0.00830078125 0.0400390625
0 0.745849609375 0.42626953125 0.00732421875 0.0341796875
0 0.769287109375 0.427734375 0.01025390625 0.048828125
0 0.75927734375 0.42529296875 0.0068359375 0.0341796875

