0 0.564453125 0.40234375 0.0126953125 0.0625
0 0.458251953125 0.4033203125 0.00244140625 0.01171875
0 0.5361328125 0.40283203125 0.0078125 0.0361328125
0 0.574951171875 0.3994140625 0.01513671875 0.072265625
0 0.229736328125 0.41064453125 0.01611328125 0.0771484375
0 0.23583984375 0.41357421875 0.015625 0.0771484375

