0 0.73193359375 0.35888671875 0.009765625 0.0458984375
0 0.376953125 0.38671875 0.0107421875 0.052734375
0 0.884765625 0.43603515625 0.0927734375 0.4521484375
0 0.447998046875 0.396484375 0.01513671875 0.07421875
0 0.4287109375 0.40478515625 0.0126953125 0.0634765625

