0 0.919189453125 0.34912109375 0.01416015625 0.0693359375
0 0.790283203125 0.4658203125 0.06884765625 0.3359375
0 0.91943359375 0.51416015625 0.0498046875 0.2412109375
0 0.869140625 0.46728515625 0.0693359375 0.3369140625
0 0.591064453125 0.4482421875 0.03173828125 0.15234375
0 0.631591796875 0.46630859375 0.02978515625 0.0673828125
0 0.78955078125 0.3134765625 0.037109375 0.099609375

