0 0.498779296875 0.5322265625 0.03173828125 0.15234375
0 0.520263671875 0.55419921875 0.02197265625 0.1083984375
0 0.31689453125 0.44140625 0.0078125 0.0390625
0 0.29443359375 0.49169921875 0.0126953125 0.0615234375

