0 0.732421875 0.376953125 0.017578125 0.087890625
0 0.543701171875 0.4111328125 0.00732421875 0.033203125
0 0.169921875 0.43212890625 0.01953125 0.0947265625
0 0.3095703125 0.42724609375 0.0126953125 0.0634765625
0 0.20166015625 0.4248046875 0.0205078125 0.099609375
0 0.813232421875 0.42138671875 0.01220703125 0.0595703125
0 0.77783203125 0.416015625 0.025390625 0.123046875
0 0.760498046875 0.4130859375 0.02783203125 0.134765625
0 0.73876953125 0.41845703125 0.0263671875 0.1279296875
0 0.547607421875 0.41357421875 0.00732421875 0.0341796875

